{
  "type": "object",
  "required": [
    "data"
  ],
  "properties": {
    "data": {
      "type": "object",
      "required": [
        "type",
        "attributes"
      ],
      "properties": {
        "type": {
          "type": "string",
          "const": "sbpLink"
        },
        "attributes": {
          "type": "object",
          "required": [
            "amount",
            "contract",
            "phone",
            "ttl"
          ],
          "properties": {
              "amount": {
                "type": "integer",
                "minimum": 1
              },
              "contract": {
                "type": "string"
              },
              "phone": {
                "type": "string",
                "pattern": "^\\+7\\d{10}$"
              },
              "ttl": {
                "type": "integer",
                "minimum": 1,
                "maximum": 9999
              }
          }
        }
      }
    }
  }
}